<svg width="22" height="27" viewBox="0 0 22 27" fill="none" xmlns="http://www.w3.org/2000/svg">
<path d="M6.28095e-09 2.69999C6.28095e-09 1.98391 0.284462 1.29715 0.790808 0.790808C1.29715 0.284462 1.98391 0 2.69999 0H18.8999C19.616 0 20.3027 0.284462 20.8091 0.790808C21.3154 1.29715 21.5999 1.98391 21.5999 2.69999V25.6499C21.5999 25.8979 21.5316 26.1411 21.4025 26.3529C21.2733 26.5646 21.0884 26.7367 20.8679 26.8503C20.6474 26.9638 20.3998 27.0144 20.1525 26.9965C19.9051 26.9786 19.6674 26.8929 19.4656 26.7488L10.7999 20.5591L2.13434 26.7488C1.93247 26.8929 1.69481 26.9786 1.44744 26.9965C1.20006 27.0144 0.952538 26.9638 0.732028 26.8503C0.511517 26.7367 0.326545 26.5646 0.197412 26.3529C0.0682786 26.1411 -2.39145e-05 25.8979 6.28095e-09 25.6499V2.69999ZM18.8999 2.69999H2.69999V23.0268L10.0156 17.8024C10.2445 17.639 10.5187 17.5511 10.7999 17.5511C11.0812 17.5511 11.3554 17.639 11.5843 17.8024L18.8999 23.0255V2.69999Z" fill="white"/>
</svg>
